…
<img src="man/figures/README-unnamed-chunk-2-1.png" width="100%" />

### with JHU collection

``` r
library(tidyverse)

jhu_sitrep <- jhu_sitrep_import(source = "confirmed")

jhu_sitrep %>%
  jhu_sitrep_cleandb() %>%
  filter(country_region=="Peru") %>%
  arrange(desc(value))
#> # A tibble: 50 x 7
#>    source    country_region province_state   lat  long dates      value
#>    <chr>     <chr>          <chr>          <dbl> <dbl> <date>     <dbl>
#>  1 confirmed Peru           <NA>           -9.19 -75.0 2020-03-10    11
#>  2 confirmed Peru           <NA>           -9.19 -75.0 2020-03-11    11
#>  3 confirmed Peru           <NA>           -9.19 -75.0 2020-03-09     7
#>  4 confirmed Peru           <NA>           -9.19 -75.0 2020-03-08     6
#>  5 confirmed Peru           <NA>           -9.19 -75.0 2020-03-06     1
#>  6 confirmed Peru           <NA>           -9.19 -75.0 2020-03-07     1
#>  7 confirmed Peru           <NA>           -9.19 -75.0 2020-01-22     0
#>  8 confirmed Peru           <NA>           -9.19 -75.0 2020-01-23     0
#>  9 confirmed Peru           <NA>           -9.19 -75.0 2020-01-24     0
#> 10 confirmed Peru           <NA>           -9.19 -75.0 2020-01-25     0
#> # ... with 40 more rows
```
